%YAML 1.1
%TAG !u! tag:unity3d.com,2011:
--- !u!78 &1
TagManager:
  serializedVersion: 2
  tags:
  - Enemy
  - Planet
  - Rocket
  - Bullet
  - Fence
  layers:
  - Default
  - TransparentFX
  - Ignore Raycast
  - 
  - Water
  - UI
  - 
  - 
  - 
  - 
  - 
  - 
  - 
  - 
  - 
  - 
  - 
  - 
  - 
  - 
  - 
  - 
  - 
  - 
  - 
  - 
  - 
  - 
  - 
  - 
  - 
  - 
  m_SortingLayers:
  - name: Default
    uniqueID: 0
    locked: 0
  - name: Background
    uniqueID: 4049711959
    locked: 0
  - name: Fourth
    uniqueID: 3392011927
    locked: 0
  - name: Third
    uniqueID: 1803594505
    locked: 0
  - name: Second
    uniqueID: 3094232137
    locked: 0
  - name: First
    uniqueID: 3485246089
    locked: 0
